…
#### Arrange rows with `arrange()`
`arrange()` works similarly to `filter()` except that instead of selecting rows, it changes their order. It takes a data frame and a set of column names (or more complicated expressions) to order by. If you provide more than one column name, each additional column will be used to break ties in the values of preceding columns:
```{r}
arrange(flights, year, month, day)
#> # A tibble: 336,776 x 19
#>    year month   day dep_time sched_dep_time dep_delay arr_time sched_arr_time
#>   <int> <int> <int>    <int>          <int>     <dbl>    <int>          <int>
#> 1  2013     1     1      517            515         2      830            819
#> 2  2013     1     1      533            529         4      850            830
#> 3  2013     1     1      542            540         2      923            850
#> 4  2013     1     1      544            545        -1     1004           1022
#> 5  2013     1     1      554            600        -6      812            837
#> 6  2013     1     1      554            558        -4      740            728
#> # … with 336,770 more rows, and 11 more variables: arr_delay <dbl>,
#> #   carrier <chr>, flight <int>, tailnum <chr>, origin <chr>, dest <chr>,
#> #   air_time <dbl>, distance <dbl>, hour <dbl>, minute <dbl>, time_hour <dttm>
```
…
These functions **differ** in their **strictness**. The function `all_of()` will raise an error if one of the variable names is not present, while `any_of()` will ignore it.
```
vars2 <- c("year", "month", "day", "variable_not_in_the_dataframe")
select(flights, all_of(vars2))
#> Error: Can't subset columns that don't exist.
#> ✖ Column `variable_not_in_the_dataframe` doesn't exist.
```

```
select(flights, any_of(vars2))
#> # A tibble: 336,776 x 3
#>    year month   day
#>   <int> <int> <int>
#> 1  2013     1     1
#> 2  2013     1     1
#> 3  2013     1     1
#> 4  2013     1     1
#> 5  2013     1     1
#> 6  2013     1     1
#> # … with 336,770 more rows
```
…
  air_time
)
mutate(flights_sml,
  gain = dep_delay - arr_delay,
  speed = distance / air_time * 60
)
```
Note that you can refer to columns that you’ve just created:
```
mutate(flights_sml,
  gain = dep_delay - arr_delay,
  hours = air_time / 60,
  gain_per_hour = gain / hours
)
#> # A tibble: 336,776 x 10
#>    year month   day dep_delay arr_delay distance air_time  gain hours
#>   <int> <int> <int>     <dbl>     <dbl>    <dbl>    <dbl> <dbl> <dbl>
#> 1  2013     1     1         2        11     1400      227    -9  3.78
#> 2  2013     1     1         4        20     1416      227   -16  3.78
#> 3  2013     1     1         2        33     1089      160   -31  2.67
#> 4  2013     1     1        -1       -18     1576      183    17  3.05
#> 5  2013     1     1        -6       -25      762      116    19  1.93
#> 6  2013     1     1        -4        12      719      150   -16  2.5 
#> # … with 336,770 more rows, and 1 more variable: gain_per_hour <dbl>
```
…
